{
  "rules": {
    "ordered-imports": false,
    "object-literal-sort-keys": false,
    "no-console": false,
    "no-implicit-dependencies": [true, "dev"],
    "prefer-template": true,
    "interface-name": false,
    "no-submodule-imports": true
  },
  "extends": ["tslint:latest", "tslint-config-prettier"]
}
